****************************
 Powered By MCP:             
 http://modcoderpack.com/    
 Searge, ProfMobius, Fesh0r, 
 R4wk, ZeuX, IngisKahn, bspkrs
 MCP Data version : snapshot_20141130
****************************
:eclipseClasspath
:eclipseJdt
:eclipseProject
:eclipse

BUILD SUCCESSFUL

Total time: 21.719 secs
