<?xml version="1.0" encoding="UTF-8"?>
<session version="1.0">
<refactoring comment="Delete resource &apos;One Command Scene&apos;" deleteContents="false" description="Delete resource &apos;One Command Scene&apos;" element1="/One Command Scene" flags="7" id="org.eclipse.ltk.core.refactoring.delete.resources" resources="1" stamp="1471183938927"/>
</session>